<?xml version="1.0"?>
<svg version="1.1" xmlns="http://www.w3.org/2000/svg" xmlns:xlink="http://www.w3.org/1999/xlink" width="450" height="60">
    <desc iVinci="yes" version="4.6" gridStep="20" showGrid="no" snapToGrid="no" codePlatform="0"/>
    <g id="Layer1" name="Layer 1" opacity="1">
        <g id="Shape1">
            <desc shapeID="1" type="0" basicInfo-basicType="0" basicInfo-roundedRectRadius="12" basicInfo-polygonSides="6" basicInfo-starPoints="5" bounding="rect(-9.125,-17.5,18.25,35)" text="" font-familyName="" font-pixelSize="20" font-bold="0" font-underline="0" font-alignment="1" strokeStyle="0" markerStart="0" markerEnd="0" shadowEnabled="0" shadowOffsetX="0" shadowOffsetY="2" shadowBlur="4" shadowOpacity="160" blurEnabled="0" blurRadius="4" transform="matrix(1,0,0,1,15.375,30.5)" pers-center="0,0" pers-size="0,0" pers-start="0,0" pers-end="0,0" locked="0" mesh="" flag=""/>
            <path id="shapePath1" d="M6.25,48 L24.5,48 L24.5,44.85 L9.65,44.85 L9.65,31.7 L23.4,31.7 L23.4,28.55 L9.65,28.55 L9.65,16.15 L24.5,16.15 L24.5,13 L6.25,13 L6.25,48 Z" style="stroke:none;fill-rule:nonzero;fill:#000000;fill-opacity:1;"/>
        </g>
        <g id="Shape2">
            <desc shapeID="2" type="0" basicInfo-basicType="0" basicInfo-roundedRectRadius="12" basicInfo-polygonSides="6" basicInfo-starPoints="5" bounding="rect(-17.025,-18.15,34.05,36.3)" text="" font-familyName="" font-pixelSize="20" font-bold="0" font-underline="0" font-alignment="1" strokeStyle="0" markerStart="0" markerEnd="0" shadowEnabled="0" shadowOffsetX="0" shadowOffsetY="2" shadowBlur="4" shadowOpacity="160" blurEnabled="0" blurRadius="4" transform="matrix(1,0,0,1,44.875,29.85)" pers-center="0,0" pers-size="0,0" pers-start="0,0" pers-end="0,0" locked="0" mesh="" flag=""/>
            <path id="shapePath2" d="M31,11.7 L42.2,11.7 L42.2,22.05 L44.2,24.15 L44.2,24.2 C43.6667,24.4667 43.4,24.65 43.4,24.75 L43.25,24.95 C43.35,24.95 43.7167,24.9833 44.35,25.05 L44.3,25.2 L44.65,25.2 L44.65,25.25 L44.35,25.35 L44.35,25.4 L44.9,25.4 C44.9,25.5333 45.1167,25.6333 45.55,25.7 L45.65,25.7 L45.65,25.65 C45.3833,25.4833 45.2,25.4 45.1,25.4 L45.1,25.35 C45.3667,25.2833 45.5667,25.25 45.7,25.25 L45.7,25.2 L45.55,25.2 L45.65,25.05 C44.95,24.9833 44.3,24.9 43.7,24.8 L43.7,24.75 C43.8333,24.75 44.65,24.65 46.15,24.45 L46.15,24.35 C45.9833,24.35 45.8167,24.3333 45.65,24.3 L45.65,24.2 C45.9833,24.2 46.15,24.1 46.15,23.9 C46.55,23.8333 46.75,23.7333 46.75,23.6 L46.9,23.6 C47.0667,23.6 47.2,23.5833 47.3,23.55 L47.95,23.7 L49.55,22.05 L49.55,11.7 L60.7,11.7 L60.7,23.25 C60.4,23.4833 60,23.6 59.5,23.6 L59.6,23.75 C59.4,23.75 59.25,23.8 59.15,23.9 L59.3,24.2 L59,24.2 L59,24.3 C59.2333,24.3333 59.4833,24.35 59.75,24.35 L59.75,24.45 L57.65,24.75 L57.65,24.8 L59.9,25.05 L59.9,25.1 L59.75,25.1 L59.75,25.2 L60.05,25.2 L60.05,25.25 C59.9833,25.25 59.8333,25.2833 59.6,25.35 L59.6,25.4 L60.05,25.4 L59.95,25.55 L60.35,25.65 L60.35,25.7 L60.2,25.7 L60.2,25.8 C60.4333,25.8 60.65,25.8167 60.85,25.85 L60.85,25.95 C60.3833,25.95 60.0667,26.0167 59.9,26.15 C59.7,26.15 59.6,26.25 59.6,26.45 L59.75,26.45 L59.75,26.55 C59.15,26.55 58.7667,26.6667 58.6,26.9 C60.4,27.0667 61.5,27.2167 61.9,27.35 L61.9,27.45 C61.7667,27.45 61.55,27.5 61.25,27.6 L61.25,27.65 L61.55,27.75 L61.55,27.8 L59.5,28.25 L59.5,28.35 L59.65,28.35 L59.65,28.4 C59.15,28.4 58.9,28.45 58.9,28.55 C58.9667,28.55 59,28.5833 59,28.65 L58.7,28.65 L58.75,28.8 L58.15,28.8 L58.15,28.85 C58.3833,28.85 58.7833,28.9 59.35,29 L59.35,29.1 L58.6,29.15 L58.6,29.25 L59,29.25 L59,29.3 C58.8,29.3 58.35,29.4 57.65,29.6 C57.4833,29.6 57.4,29.65 57.4,29.75 C57.7667,29.75 58.05,29.8333 58.25,30 L58.25,30.05 L57.95,30.15 L57.95,30.3 L58.1,30.3 L58.1,30.35 C57.2,30.35 56.35,30.45 55.55,30.65 L55.55,30.75 L55.85,30.75 L55.85,30.8 L55.45,30.9 L55.45,30.95 L56,30.95 L55.85,31.2 C55.8833,31.2 55.9,31.2167 55.9,31.25 L55.75,31.25 L55.75,31.4 C56.0167,31.5 56.5667,31.5833 57.4,31.65 C57.4,31.75 57.25,31.8 56.95,31.8 L56.95,31.85 L57.8,32 C57.8,32.1 57.7,32.15 57.5,32.15 L57.5,32.25 L58,32.3 L58.3,32.3 L58.3,32.45 L59.15,32.45 C59.15,32.6833 59.9167,32.8333 61.45,32.9 L61.45,33 C61.1167,33 60.8667,33.1167 60.7,33.35 L60.95,33.35 L60.85,33.5 C60.95,33.5667 61.25,33.6167 61.75,33.65 L61.75,33.75 C61.3167,33.75 61.1,33.8 61.1,33.9 C61.1333,33.9 61.15,33.9167 61.15,33.95 C61.0833,34.0167 60.9667,34.05 60.8,34.05 L60.8,34.1 C61,34.1 61.1,34.15 61.1,34.25 C61.0333,34.25 61,34.2833 61,34.35 L61.45,34.4 L61.45,34.5 C61.25,34.5 60.85,34.5667 60.25,34.7 L60.25,34.85 L60.4,34.85 L60.35,35 L60.35,35.1 L60.65,35.1 L60.65,35.15 C60.4833,35.15 60.3,35.1833 60.1,35.25 L60.1,35.3 C60.2,35.3 60.4833,35.3833 60.95,35.55 C60.95,35.65 60.85,35.7 60.65,35.7 L60.65,35.75 L60.8,35.75 L60.8,35.85 L60.65,35.85 L60.65,35.9 C61.1833,35.9 61.45,35.9833 61.45,36.15 L61.45,36.2 L60.7,36 L60.7,48 L49.55,48 L49.55,37.65 C49.55,37.5833 49.15,37.1833 48.35,36.45 L48.4,36.05 L48.4,35.9 L47.8,35.9 C47.8,35.8 47.7333,35.75 47.6,35.75 L47.6,35.7 L47.8,35.7 C47.8,35.6 47.4333,35.4667 46.7,35.3 L46.7,35.15 L46.9,35.15 L46.9,35.1 C46.8,35.1 46.6333,35.0167 46.4,34.85 C46.3,34.8167 46.2167,34.8 46.15,34.8 L46.15,34.7 C46.6167,34.5667 46.95,34.5 47.15,34.5 L47.15,34.4 C47.0167,34.4 46.8167,34.3833 46.55,34.35 L46.6,34.2 L45.85,34.05 L45.95,34.2 L45.95,34.25 L45.8,34.25 C45.8,34.35 45.9,34.4 46.1,34.4 L46.1,34.5 C45.0667,34.5667 44.5333,34.6833 44.5,34.85 C44.5667,34.85 44.6,34.8833 44.6,34.95 C44.4333,34.95 44.35,35 44.35,35.1 L44.6,35.1 L44.6,35.15 C44.4,35.15 44.1667,35.1833 43.9,35.25 L43.9,35.3 C44.2667,35.4 44.45,35.5 44.45,35.6 L44,35.7 L44.05,35.85 L43.85,35.85 L43.85,35.9 L44.45,35.9 C44.45,36.0333 44.4667,36.1333 44.5,36.2 L44.35,36.2 L44.35,36.3 C44.55,36.3333 44.7333,36.35 44.9,36.35 L44.9,36.5 C44.6333,36.5 44.35,36.65 44.05,36.95 C43.8833,36.85 43.6667,36.8 43.4,36.8 C43.3,36.8667 43.2167,36.9 43.15,36.9 L43.4,36.45 L43.3,36.45 L42.2,37.65 L42.2,48 L31,48 L31,36 L31.15,36 L31.15,35.9 L31,35.9 L31.1,35.75 L30.95,35.75 L30.95,35.7 L31.25,35.7 L31.25,35.55 C30.75,35.3833 30.5,35.3 30.5,35.3 C30.5,35.2 30.6167,35.15 30.85,35.15 L30.85,35.1 L30.65,35.1 L30.7,34.95 L30.7,34.85 C30.5667,34.85 30.5,34.8 30.5,34.7 C31.1333,34.5667 31.55,34.5 31.75,34.5 L31.75,34.4 L31.3,34.35 L31.3,34.25 L31.45,34.25 L31.45,34.2 L31.1,34.1 L31.1,34.05 L31.55,33.95 L31.55,33.9 L31.4,33.9 C31.4,33.8 31.45,33.75 31.55,33.75 L32.3,33.75 L32.3,33.65 L31.9,33.6 C31.9,33.5 31.9833,33.45 32.15,33.45 L32.05,33.3 C32.8167,33.1 33.2667,33 33.4,33 L33.4,32.9 C32.5667,32.9 32.1,32.75 32,32.45 L31.45,32.45 C31.45,32.3167 31.3,32.25 31,32.25 L31,32.15 C31.1667,32.15 31.4,32.1333 31.7,32.1 C31.7,31.9333 31.5167,31.85 31.15,31.85 L31.15,31.8 C31.5167,31.8 31.8,31.7667 32,31.7 L32,31.65 L31.25,31.55 L31.1,31.55 L31.1,31.4 C31.1,31.3333 31.3667,31.2167 31.9,31.05 L31.9,30.95 L31.6,30.95 L31.6,30.9 L32.3,30.8 L32.2,30.65 L32.65,30.5 C34.0167,30.4 34.95,30.35 35.45,30.35 L35.5,30.35 C35.5,30.15 35.7,30.05 36.1,30.05 L36.25,30.05 C36.25,30.0167 36.2833,29.95 36.35,29.85 L35.45,29.7 L35.45,29.6 C35.55,29.6 35.7,29.55 35.9,29.45 L35.8,29.3 L36.1,29.3 L36.1,29.25 L35.65,29.25 L35.65,29.15 L36.05,29.15 L36.05,29 L35.95,29 C35.15,28.9 34.6333,28.85 34.4,28.85 L34.4,28.8 L34.9,28.8 L34.9,28.7 L34.7,28.7 L34.7,28.65 L34.9,28.65 L34.9,28.55 C34.8667,28.55 34.6667,28.5333 34.3,28.5 L34.3,28.4 L35.05,28.4 L35.05,28.35 L34.7,28.35 L34.7,28.25 L34.9,28.25 L34.9,28.2 L34.75,28.2 C34.75,28.1 35.1,28 35.8,27.9 L35.8,27.8 C35.5667,27.7 35.35,27.65 35.15,27.65 L35.15,27.6 L35.3,27.6 L35.3,27.5 L35.05,27.5 L35.05,27.45 L35.35,27.45 L35.35,27.35 L30.95,26.85 L30.95,26.75 L31.1,26.75 L31.1,26.7 L30.85,26.7 L30.85,26.55 L31.4,26.55 L31.4,26.45 C31.2333,26.45 31.0333,26.3833 30.8,26.25 L30.65,26.25 L30.65,26.15 L31,26.15 L31,26.1 L30.65,26 L30.65,25.95 L31.3,25.95 L31.3,25.85 C31.2333,25.85 30.9833,25.8333 30.55,25.8 L30.55,25.7 L30.7,25.7 L30.7,25.65 C30.3,25.4833 30.0333,25.4 29.9,25.4 L29.9,25.35 L30.35,25.25 L30.35,25.2 C30.1833,25.2 30.1,25.15 30.1,25.05 C29.9,25.05 29.15,24.9667 27.85,24.8 L27.85,24.75 C28.0167,24.75 28.7,24.65 29.9,24.45 L29.95,24.45 L29.95,24.35 C29.7833,24.35 29.5667,24.3333 29.3,24.3 L29.3,24.2 L29.6,24.2 L29.6,24.15 L29.45,23.9 C29.45,23.9 29.55,23.8833 29.75,23.85 C29.85,24.05 30.15,24.15 30.65,24.15 L31,24.05 L31,11.7 M42.05,24.75 L42.05,24.8 C42.0833,24.8 42.15,24.8333 42.25,24.9 L42.4,24.9 L42.4,24.8 C42.3,24.8 42.2,24.7833 42.1,24.75 L42.05,24.75 M45.35,36.5 L45.4,36.5 C45.8333,36.5667 46.0833,36.6 46.15,36.6 L46.15,36.65 L46,36.65 L46,36.75 L46.3,36.75 L46.3,36.8 L45.55,36.8 C45.4833,36.8 45.4167,36.7333 45.35,36.6 L45.35,36.5 Z" style="stroke:none;fill-rule:nonzero;fill:#000000;fill-opacity:1;"/>
        </g>
        <g id="Shape3">
            <desc shapeID="3" type="0" basicInfo-basicType="0" basicInfo-roundedRectRadius="12" basicInfo-polygonSides="6" basicInfo-starPoints="5" bounding="rect(-11.675,-17.5,23.35,35)" text="" font-familyName="" font-pixelSize="20" font-bold="0" font-underline="0" font-alignment="1" strokeStyle="0" markerStart="0" markerEnd="0" shadowEnabled="0" shadowOffsetX="0" shadowOffsetY="2" shadowBlur="4" shadowOpacity="160" blurEnabled="0" blurRadius="4" transform="matrix(1,0,0,1,77.675,30.5)" pers-center="0,0" pers-size="0,0" pers-start="0,0" pers-end="0,0" locked="0" mesh="" flag=""/>
            <path id="shapePath3" d="M76,48 L79.4,48 L79.4,16.15 L89.35,16.15 L89.35,13 L66,13 L66,16.15 L76,16.15 L76,48 Z" style="stroke:none;fill-rule:nonzero;fill:#000000;fill-opacity:1;"/>
        </g>
        <g id="Shape4">
            <desc shapeID="4" type="0" basicInfo-basicType="0" basicInfo-roundedRectRadius="12" basicInfo-polygonSides="6" basicInfo-starPoints="5" bounding="rect(-9.125,-17.5,18.25,35)" text="" font-familyName="" font-pixelSize="20" font-bold="0" font-underline="0" font-alignment="1" strokeStyle="0" markerStart="0" markerEnd="0" shadowEnabled="0" shadowOffsetX="0" shadowOffsetY="2" shadowBlur="4" shadowOpacity="160" blurEnabled="0" blurRadius="4" transform="matrix(1,0,0,1,111.77,30.5)" pers-center="0,0" pers-size="0,0" pers-start="0,0" pers-end="0,0" locked="0" mesh="" flag=""/>
            <path id="shapePath4" d="M102.645,48 L120.895,48 L120.895,44.85 L106.045,44.85 L106.045,31.7 L119.795,31.7 L119.795,28.55 L106.045,28.55 L106.045,16.15 L120.895,16.15 L120.895,13 L102.645,13 L102.645,48 Z" style="stroke:none;fill-rule:nonzero;fill:#000000;fill-opacity:1;"/>
        </g>
        <g id="Shape5">
            <desc shapeID="5" type="0" basicInfo-basicType="0" basicInfo-roundedRectRadius="12" basicInfo-polygonSides="6" basicInfo-starPoints="5" bounding="rect(-15.975,-17.5,31.95,35)" text="" font-familyName="" font-pixelSize="20" font-bold="0" font-underline="0" font-alignment="1" strokeStyle="0" markerStart="0" markerEnd="0" shadowEnabled="0" shadowOffsetX="0" shadowOffsetY="2" shadowBlur="4" shadowOpacity="160" blurEnabled="0" blurRadius="4" transform="matrix(1,0,0,1,150.616,30.5)" pers-center="0,0" pers-size="0,0" pers-start="0,0" pers-end="0,0" locked="0" mesh="" flag=""/>
            <path id="shapePath5" d="M134.641,48 L137.941,48 L138.741,18.3 L138.991,18.3 L148.291,43.5 L152.941,43.5 L162.241,18.3 L162.491,18.3 L163.241,48 L166.591,48 L165.441,13 L160.891,13 L150.641,40.7 L140.341,13 L135.741,13 L134.641,48 Z" style="stroke:none;fill-rule:nonzero;fill:#000000;fill-opacity:1;"/>
        </g>
        <g id="Shape6">
            <desc shapeID="6" type="0" basicInfo-basicType="0" basicInfo-roundedRectRadius="12" basicInfo-polygonSides="6" basicInfo-starPoints="5" bounding="rect(-10.675,-17.5,21.35,35)" text="" font-familyName="" font-pixelSize="20" font-bold="0" font-underline="0" font-alignment="1" strokeStyle="0" markerStart="0" markerEnd="0" shadowEnabled="0" shadowOffsetX="0" shadowOffsetY="2" shadowBlur="4" shadowOpacity="160" blurEnabled="0" blurRadius="4" transform="matrix(1,0,0,1,192.46,30.5)" pers-center="0,0" pers-size="0,0" pers-start="0,0" pers-end="0,0" locked="0" mesh="" flag=""/>
            <path id="shapePath6" d="M181.785,48 L185.185,48 L185.185,34.95 L192.235,34.95 C199.335,34.95 203.135,30.5 203.135,24 C203.135,17.1 199.035,13 192.235,13 L181.785,13 L181.785,48 M185.185,31.8 L185.185,16.15 L192.135,16.15 C197.635,16.15 199.585,19.45 199.585,24 C199.585,28.45 197.635,31.8 192.135,31.8 L185.185,31.8 Z" style="stroke:none;fill-rule:nonzero;fill:#000000;fill-opacity:1;"/>
        </g>
        <g id="Shape7">
            <desc shapeID="7" type="0" basicInfo-basicType="0" basicInfo-roundedRectRadius="12" basicInfo-polygonSides="6" basicInfo-starPoints="5" bounding="rect(-12.8,-17.9,25.6,35.8)" text="" font-familyName="" font-pixelSize="20" font-bold="0" font-underline="0" font-alignment="1" strokeStyle="0" markerStart="0" markerEnd="0" shadowEnabled="0" shadowOffsetX="0" shadowOffsetY="2" shadowBlur="4" shadowOpacity="160" blurEnabled="0" blurRadius="4" transform="matrix(1,0,0,1,227.675,30.5)" pers-center="0,0" pers-size="0,0" pers-start="0,0" pers-end="0,0" locked="0" mesh="" flag=""/>
            <path id="shapePath7" d="M227.675,12.6 C218.475,12.6 214.875,19.55 214.875,30.45 C214.875,41.45 218.475,48.4 227.675,48.4 C236.825,48.4 240.475,41.45 240.475,30.45 C240.475,19.55 236.825,12.6 227.675,12.6 M227.675,45.25 C220.675,45.25 218.425,39.5 218.425,30.45 C218.425,21.5 220.675,15.75 227.675,15.75 C234.625,15.75 236.875,21.5 236.875,30.45 C236.875,39.5 234.625,45.25 227.675,45.25 Z" style="stroke:none;fill-rule:nonzero;fill:#000000;fill-opacity:1;"/>
        </g>
        <g id="Shape8">
            <desc shapeID="8" type="0" basicInfo-basicType="0" basicInfo-roundedRectRadius="12" basicInfo-polygonSides="6" basicInfo-starPoints="5" bounding="rect(-11.35,-17.5,22.7,35)" text="" font-familyName="" font-pixelSize="20" font-bold="0" font-underline="0" font-alignment="1" strokeStyle="0" markerStart="0" markerEnd="0" shadowEnabled="0" shadowOffsetX="0" shadowOffsetY="2" shadowBlur="4" shadowOpacity="160" blurEnabled="0" blurRadius="4" transform="matrix(1,0,0,1,265.733,30.5)" pers-center="0,0" pers-size="0,0" pers-start="0,0" pers-end="0,0" locked="0" mesh="" flag=""/>
            <path id="shapePath8" d="M277.083,48 L269.533,33.45 C273.783,32.1 276.133,28.6 276.133,23.5 C276.133,16.6 271.783,13 265.133,13 L254.383,13 L254.383,48 L257.783,48 L257.783,34.1 L265.133,34.1 C265.483,34.1 265.833,34.1 266.183,34.05 L273.183,48 L277.083,48 M264.833,30.9 L257.783,30.9 L257.783,16.15 L264.833,16.15 C270.133,16.15 272.533,18.9 272.533,23.5 C272.533,28.2 270.133,30.9 264.833,30.9 Z" style="stroke:none;fill-rule:nonzero;fill:#000000;fill-opacity:1;"/>
        </g>
        <g id="Shape9">
            <desc shapeID="9" type="0" basicInfo-basicType="0" basicInfo-roundedRectRadius="12" basicInfo-polygonSides="6" basicInfo-starPoints="5" bounding="rect(-12.825,-17.5,25.65,35)" text="" font-familyName="" font-pixelSize="20" font-bold="0" font-underline="0" font-alignment="1" strokeStyle="0" markerStart="0" markerEnd="0" shadowEnabled="0" shadowOffsetX="0" shadowOffsetY="2" shadowBlur="4" shadowOpacity="160" blurEnabled="0" blurRadius="4" transform="matrix(1,0,0,1,299.427,30.5)" pers-center="0,0" pers-size="0,0" pers-start="0,0" pers-end="0,0" locked="0" mesh="" flag=""/>
            <path id="shapePath9" d="M308.702,48 L312.252,48 L302.502,13 L296.302,13 L286.602,48 L290.052,48 L292.552,38.85 L306.202,38.85 L308.702,48 M293.452,35.65 L298.652,16.65 L300.152,16.65 L305.302,35.6 L293.452,35.65 Z" style="stroke:none;fill-rule:nonzero;fill:#000000;fill-opacity:1;"/>
        </g>
        <g id="Shape10">
            <desc shapeID="10" type="0" basicInfo-basicType="0" basicInfo-roundedRectRadius="12" basicInfo-polygonSides="6" basicInfo-starPoints="5" bounding="rect(-11.3,-17.5,22.6,35)" text="" font-familyName="" font-pixelSize="20" font-bold="0" font-underline="0" font-alignment="1" strokeStyle="0" markerStart="0" markerEnd="0" shadowEnabled="0" shadowOffsetX="0" shadowOffsetY="2" shadowBlur="4" shadowOpacity="160" blurEnabled="0" blurRadius="4" transform="matrix(1,0,0,1,335.741,30.5)" pers-center="0,0" pers-size="0,0" pers-start="0,0" pers-end="0,0" locked="0" mesh="" flag=""/>
            <path id="shapePath10" d="M324.441,48 L327.691,48 L327.691,20.3 L327.941,20.3 L343.891,48 L347.041,48 L347.041,13 L343.791,13 L343.791,41.05 L343.541,41.05 L327.191,13 L324.441,13 L324.441,48 Z" style="stroke:none;fill-rule:nonzero;fill:#000000;fill-opacity:1;"/>
        </g>
        <g id="Shape11">
            <desc shapeID="11" type="0" basicInfo-basicType="0" basicInfo-roundedRectRadius="12" basicInfo-polygonSides="6" basicInfo-starPoints="5" bounding="rect(-9.125,-17.5,18.25,35)" text="" font-familyName="" font-pixelSize="20" font-bold="0" font-underline="0" font-alignment="1" strokeStyle="0" markerStart="0" markerEnd="0" shadowEnabled="0" shadowOffsetX="0" shadowOffsetY="2" shadowBlur="4" shadowOpacity="160" blurEnabled="0" blurRadius="4" transform="matrix(1,0,0,1,371.574,30.5)" pers-center="0,0" pers-size="0,0" pers-start="0,0" pers-end="0,0" locked="0" mesh="" flag=""/>
            <path id="shapePath11" d="M362.449,48 L380.699,48 L380.699,44.85 L365.849,44.85 L365.849,31.7 L379.599,31.7 L379.599,28.55 L365.849,28.55 L365.849,16.15 L380.699,16.15 L380.699,13 L362.449,13 L362.449,48 Z" style="stroke:none;fill-rule:nonzero;fill:#000000;fill-opacity:1;"/>
        </g>
        <g id="Shape12">
            <desc shapeID="12" type="0" basicInfo-basicType="0" basicInfo-roundedRectRadius="12" basicInfo-polygonSides="6" basicInfo-starPoints="5" bounding="rect(-12.825,-17.5,25.65,35)" text="" font-familyName="" font-pixelSize="20" font-bold="0" font-underline="0" font-alignment="1" strokeStyle="0" markerStart="0" markerEnd="0" shadowEnabled="0" shadowOffsetX="0" shadowOffsetY="2" shadowBlur="4" shadowOpacity="160" blurEnabled="0" blurRadius="4" transform="matrix(1,0,0,1,404.27,30.5)" pers-center="0,0" pers-size="0,0" pers-start="0,0" pers-end="0,0" locked="0" mesh="" flag=""/>
            <path id="shapePath12" d="M413.545,48 L417.095,48 L407.345,13 L401.145,13 L391.445,48 L394.895,48 L397.395,38.85 L411.045,38.85 L413.545,48 M398.295,35.65 L403.495,16.65 L404.995,16.65 L410.145,35.6 L398.295,35.65 Z" style="stroke:none;fill-rule:nonzero;fill:#000000;fill-opacity:1;"/>
        </g>
    </g>
</svg>
