<?xml version="1.0"?>
<svg version="1.1" xmlns="http://www.w3.org/2000/svg" xmlns:xlink="http://www.w3.org/1999/xlink" width="450" height="60">
    <desc iVinci="yes" version="4.6" gridStep="20" showGrid="no" snapToGrid="no" codePlatform="0"/>
    <g id="Layer1" name="Layer 1" opacity="1">
        <g id="Shape1">
            <desc shapeID="1" type="0" basicInfo-basicType="0" basicInfo-roundedRectRadius="12" basicInfo-polygonSides="6" basicInfo-starPoints="5" bounding="rect(-9.125,-17.5,18.25,35)" text="" font-familyName="" font-pixelSize="20" font-bold="0" font-underline="0" font-alignment="1" strokeStyle="0" markerStart="0" markerEnd="0" shadowEnabled="0" shadowOffsetX="0" shadowOffsetY="2" shadowBlur="4" shadowOpacity="160" blurEnabled="0" blurRadius="4" transform="matrix(1,0,0,1,15.375,30.5)" pers-center="0,0" pers-size="0,0" pers-start="0,0" pers-end="0,0" locked="0" mesh="" flag=""/>
            <path id="shapePath1" d="M6.25,48 L24.5,48 L24.5,44.85 L9.65,44.85 L9.65,31.7 L23.4,31.7 L23.4,28.55 L9.65,28.55 L9.65,16.15 L24.5,16.15 L24.5,13 L6.25,13 L6.25,48 Z" style="stroke:none;fill-rule:nonzero;fill:#000000;fill-opacity:1;"/>
        </g>
        <g id="Shape2">
            <desc shapeID="2" type="0" basicInfo-basicType="0" basicInfo-roundedRectRadius="12" basicInfo-polygonSides="6" basicInfo-starPoints="5" bounding="rect(-10.45,-19.375,20.9,38.75)" text="" font-familyName="" font-pixelSize="20" font-bold="0" font-underline="0" font-alignment="1" strokeStyle="0" markerStart="0" markerEnd="0" shadowEnabled="0" shadowOffsetX="0" shadowOffsetY="2" shadowBlur="4" shadowOpacity="160" blurEnabled="0" blurRadius="4" transform="matrix(1,0,0,1,46.2,31.125)" pers-center="0,0" pers-size="0,0" pers-start="0,0" pers-end="0,0" locked="0" mesh="" flag=""/>
            <path id="shapePath2" d="M48.95,40.5 C48.8833,40.5 48.6333,40.0667 48.2,39.2 C47.7667,38.3333 47.5333,37.9 47.5,37.9 C47.3667,37.9 47.15,37.5 46.85,36.7 C46.4833,35.8333 46.1833,35.3333 45.95,35.2 C45.7833,35.0667 45.65,35.0333 45.55,35.1 C45.45,35.1667 45.3167,35.3667 45.15,35.7 C44.9833,36.0333 44.8167,36.3333 44.65,36.6 C44.4833,36.8333 44.3333,37.1333 44.2,37.5 C44.0333,37.8667 43.8167,38.2333 43.55,38.6 C43.3167,38.9667 43.1167,39.35 42.95,39.75 C42.75,40.25 42.4167,40.9 41.95,41.7 C41.5167,42.3667 41.3,42.8 41.3,43 C41.3,43.1333 41.15,43.35 40.85,43.65 C40.55,43.9167 40.2333,44.4667 39.9,45.3 C39.5333,46.1333 39.2667,46.6 39.1,46.7 C39.0333,46.7333 38.8167,47.1167 38.45,47.85 C37.7833,49.2167 37.2,49.9 36.7,49.9 C36.3333,49.9 36.0833,49.5833 35.95,48.95 C35.8167,48.45 35.75,47.6833 35.75,46.65 C35.75,44.45 35.95,43.0667 36.35,42.5 C36.4833,42.2667 36.6333,41.85 36.8,41.25 C37.2333,39.5833 37.6,38.75 37.9,38.75 C38.1667,38.75 38.3333,39.0167 38.4,39.55 C38.5,40.05 38.6167,40.3 38.75,40.3 C38.7833,40.3 38.8833,40.25 39.05,40.15 C39.3167,39.8833 40.0333,38.6167 41.2,36.35 C41.4,35.9833 41.6167,35.6167 41.85,35.25 C42.1167,34.85 42.3833,34.35 42.65,33.75 C43.1167,32.85 43.3667,32.3833 43.4,32.35 C43.5,32.25 43.6333,32.0333 43.8,31.7 C43.9,31.5 43.95,31.3167 43.95,31.15 C43.95,30.8833 43.8,30.4667 43.5,29.9 C43.4,29.7 43.2833,29.4667 43.15,29.2 C43.05,28.9 42.9167,28.6 42.75,28.3 C42.6167,28 42.5333,27.8 42.5,27.7 C42.2667,27.0333 42.0833,26.6667 41.95,26.6 C41.85,26.5333 41.6667,26.2167 41.4,25.65 C41.1667,25.0833 41.05,24.7333 41.05,24.6 C41.05,24.4333 40.95,24.25 40.75,24.05 C40.5167,23.75 40.2333,23.0667 39.9,22 C39.4667,20.8667 39.2,20.2667 39.1,20.2 C38.8667,20.0333 38.5833,19.2 38.25,17.7 C37.95,16.1667 37.8,14.9667 37.8,14.1 C37.8,13.7333 37.8333,13.5167 37.9,13.45 C38,13.2833 38.05,13.0167 38.05,12.65 C38.05,12.25 38.15,12.05 38.35,12.05 C38.55,12.05 38.7667,12.2167 39,12.55 C39.2667,12.85 39.4333,13.1667 39.5,13.5 C40,15.5667 40.4333,16.7833 40.8,17.15 C40.9667,17.3167 41.05,17.5 41.05,17.7 C41.05,17.8333 41.3833,18.6667 42.05,20.2 L43.05,22.45 C43.15,22.7833 43.2833,22.95 43.45,22.95 C43.5833,22.95 43.65,23.0333 43.65,23.2 C43.65,23.4 43.75,23.7667 43.95,24.3 C44.1833,24.8 44.3167,25.0833 44.35,25.15 C44.4167,25.55 44.5167,25.75 44.65,25.75 C44.8167,25.75 45.0167,26.1 45.25,26.8 L45.6,27.85 L46.1,27.25 C46.3333,26.95 46.6167,26.45 46.95,25.75 C47.1833,25.0833 47.4,24.65 47.6,24.45 C47.6667,24.3833 47.8833,23.9333 48.25,23.1 C48.65,22.2333 48.8833,21.7667 48.95,21.7 C49.0833,21.6333 49.5167,20.8167 50.25,19.25 C50.8833,17.85 51.45,16.7833 51.95,16.05 C52.3833,15.35 52.6333,14.9 52.7,14.7 C52.8333,14.3667 52.9833,14.1667 53.15,14.1 C53.35,14.0333 53.45,13.9 53.45,13.7 C53.45,13.4667 53.75,13.05 54.35,12.45 C54.8167,11.9833 55.1333,11.75 55.3,11.75 C55.5667,11.75 55.7,12.55 55.7,14.15 C55.7,15.4833 55.5167,16.5 55.15,17.2 C54.75,17.8667 54.45,18.3 54.25,18.5 C54.0167,18.7333 53.9,18.95 53.9,19.15 C53.9,19.25 53.65,19.7 53.15,20.5 C52.65,21.3 52.4,21.75 52.4,21.85 C52.4,22.0167 52.2333,22.3 51.9,22.7 C51.5333,23.0667 51.2333,23.6 51,24.3 C50.7667,24.9667 50.55,25.4 50.35,25.6 C50.15,25.8 50.05,25.95 50.05,26.05 C50.05,26.15 49.65,27 48.85,28.6 C48.0833,30.1333 47.7,31.0667 47.7,31.4 C47.7,31.6667 47.8333,32.1333 48.1,32.8 C48.3667,33.4667 48.6,33.9 48.8,34.1 C48.9,34.2 49.1167,34.6 49.45,35.3 C49.7833,35.9667 50.0167,36.3667 50.15,36.5 C50.25,36.6 50.5167,37.0833 50.95,37.95 C51.4167,38.8167 51.7167,39.3 51.85,39.4 C52.05,39.6 52.15,39.7833 52.15,39.95 C52.15,40.15 52.3333,40.4333 52.7,40.8 C53.0667,41.1667 53.25,41.3833 53.25,41.45 C53.25,41.5167 53.4833,41.8833 53.95,42.55 C54.4167,43.1833 54.7167,43.5667 54.85,43.7 C55.05,43.9 55.15,44.0667 55.15,44.2 C55.15,44.4 55.3167,44.6667 55.65,45 C56.3167,45.7667 56.65,46.8833 56.65,48.35 C56.65,49.7833 56.4667,50.5 56.1,50.5 C55.9333,50.5 55.7667,50.3667 55.6,50.1 C55.4333,49.8333 55.15,49.4667 54.75,49 C54.3833,48.5333 54.0667,48.1 53.8,47.7 C53.3333,47.0333 53.05,46.7 52.95,46.7 C52.8833,46.6667 52.6833,46.3667 52.35,45.8 C52.05,45.2333 51.85,44.95 51.75,44.95 C51.6167,44.95 51.4,44.6333 51.1,44 C50.9333,43.6333 50.65,43.1667 50.25,42.6 C49.85,42.0333 49.5667,41.55 49.4,41.15 C49.2,40.7167 49.05,40.5 48.95,40.5 Z" style="stroke:none;fill-rule:nonzero;fill:#000000;fill-opacity:1;"/>
        </g>
        <g id="Shape3">
            <desc shapeID="3" type="0" basicInfo-basicType="0" basicInfo-roundedRectRadius="12" basicInfo-polygonSides="6" basicInfo-starPoints="5" bounding="rect(-11.675,-17.5,23.35,35)" text="" font-familyName="" font-pixelSize="20" font-bold="0" font-underline="0" font-alignment="1" strokeStyle="0" markerStart="0" markerEnd="0" shadowEnabled="0" shadowOffsetX="0" shadowOffsetY="2" shadowBlur="4" shadowOpacity="160" blurEnabled="0" blurRadius="4" transform="matrix(1,0,0,1,77.675,30.5)" pers-center="0,0" pers-size="0,0" pers-start="0,0" pers-end="0,0" locked="0" mesh="" flag=""/>
            <path id="shapePath3" d="M76,48 L79.4,48 L79.4,16.15 L89.35,16.15 L89.35,13 L66,13 L66,16.15 L76,16.15 L76,48 Z" style="stroke:none;fill-rule:nonzero;fill:#000000;fill-opacity:1;"/>
        </g>
        <g id="Shape4">
            <desc shapeID="4" type="0" basicInfo-basicType="0" basicInfo-roundedRectRadius="12" basicInfo-polygonSides="6" basicInfo-starPoints="5" bounding="rect(-9.125,-17.5,18.25,35)" text="" font-familyName="" font-pixelSize="20" font-bold="0" font-underline="0" font-alignment="1" strokeStyle="0" markerStart="0" markerEnd="0" shadowEnabled="0" shadowOffsetX="0" shadowOffsetY="2" shadowBlur="4" shadowOpacity="160" blurEnabled="0" blurRadius="4" transform="matrix(1,0,0,1,111.77,30.5)" pers-center="0,0" pers-size="0,0" pers-start="0,0" pers-end="0,0" locked="0" mesh="" flag=""/>
            <path id="shapePath4" d="M102.645,48 L120.895,48 L120.895,44.85 L106.045,44.85 L106.045,31.7 L119.795,31.7 L119.795,28.55 L106.045,28.55 L106.045,16.15 L120.895,16.15 L120.895,13 L102.645,13 L102.645,48 Z" style="stroke:none;fill-rule:nonzero;fill:#000000;fill-opacity:1;"/>
        </g>
        <g id="Shape5">
            <desc shapeID="5" type="0" basicInfo-basicType="0" basicInfo-roundedRectRadius="12" basicInfo-polygonSides="6" basicInfo-starPoints="5" bounding="rect(-15.975,-17.5,31.95,35)" text="" font-familyName="" font-pixelSize="20" font-bold="0" font-underline="0" font-alignment="1" strokeStyle="0" markerStart="0" markerEnd="0" shadowEnabled="0" shadowOffsetX="0" shadowOffsetY="2" shadowBlur="4" shadowOpacity="160" blurEnabled="0" blurRadius="4" transform="matrix(1,0,0,1,150.616,30.5)" pers-center="0,0" pers-size="0,0" pers-start="0,0" pers-end="0,0" locked="0" mesh="" flag=""/>
            <path id="shapePath5" d="M134.641,48 L137.941,48 L138.741,18.3 L138.991,18.3 L148.291,43.5 L152.941,43.5 L162.241,18.3 L162.491,18.3 L163.241,48 L166.591,48 L165.441,13 L160.891,13 L150.641,40.7 L140.341,13 L135.741,13 L134.641,48 Z" style="stroke:none;fill-rule:nonzero;fill:#000000;fill-opacity:1;"/>
        </g>
        <g id="Shape6">
            <desc shapeID="6" type="0" basicInfo-basicType="0" basicInfo-roundedRectRadius="12" basicInfo-polygonSides="6" basicInfo-starPoints="5" bounding="rect(-10.675,-17.5,21.35,35)" text="" font-familyName="" font-pixelSize="20" font-bold="0" font-underline="0" font-alignment="1" strokeStyle="0" markerStart="0" markerEnd="0" shadowEnabled="0" shadowOffsetX="0" shadowOffsetY="2" shadowBlur="4" shadowOpacity="160" blurEnabled="0" blurRadius="4" transform="matrix(1,0,0,1,192.46,30.5)" pers-center="0,0" pers-size="0,0" pers-start="0,0" pers-end="0,0" locked="0" mesh="" flag=""/>
            <path id="shapePath6" d="M181.785,48 L185.185,48 L185.185,34.95 L192.235,34.95 C199.335,34.95 203.135,30.5 203.135,24 C203.135,17.1 199.035,13 192.235,13 L181.785,13 L181.785,48 M185.185,31.8 L185.185,16.15 L192.135,16.15 C197.635,16.15 199.585,19.45 199.585,24 C199.585,28.45 197.635,31.8 192.135,31.8 L185.185,31.8 Z" style="stroke:none;fill-rule:nonzero;fill:#000000;fill-opacity:1;"/>
        </g>
        <g id="Shape7">
            <desc shapeID="7" type="0" basicInfo-basicType="0" basicInfo-roundedRectRadius="12" basicInfo-polygonSides="6" basicInfo-starPoints="5" bounding="rect(-12.8,-17.9,25.6,35.8)" text="" font-familyName="" font-pixelSize="20" font-bold="0" font-underline="0" font-alignment="1" strokeStyle="0" markerStart="0" markerEnd="0" shadowEnabled="0" shadowOffsetX="0" shadowOffsetY="2" shadowBlur="4" shadowOpacity="160" blurEnabled="0" blurRadius="4" transform="matrix(1,0,0,1,227.675,30.5)" pers-center="0,0" pers-size="0,0" pers-start="0,0" pers-end="0,0" locked="0" mesh="" flag=""/>
            <path id="shapePath7" d="M227.675,12.6 C218.475,12.6 214.875,19.55 214.875,30.45 C214.875,41.45 218.475,48.4 227.675,48.4 C236.825,48.4 240.475,41.45 240.475,30.45 C240.475,19.55 236.825,12.6 227.675,12.6 M227.675,45.25 C220.675,45.25 218.425,39.5 218.425,30.45 C218.425,21.5 220.675,15.75 227.675,15.75 C234.625,15.75 236.875,21.5 236.875,30.45 C236.875,39.5 234.625,45.25 227.675,45.25 Z" style="stroke:none;fill-rule:nonzero;fill:#000000;fill-opacity:1;"/>
        </g>
        <g id="Shape8">
            <desc shapeID="8" type="0" basicInfo-basicType="0" basicInfo-roundedRectRadius="12" basicInfo-polygonSides="6" basicInfo-starPoints="5" bounding="rect(-11.35,-17.5,22.7,35)" text="" font-familyName="" font-pixelSize="20" font-bold="0" font-underline="0" font-alignment="1" strokeStyle="0" markerStart="0" markerEnd="0" shadowEnabled="0" shadowOffsetX="0" shadowOffsetY="2" shadowBlur="4" shadowOpacity="160" blurEnabled="0" blurRadius="4" transform="matrix(1,0,0,1,265.733,30.5)" pers-center="0,0" pers-size="0,0" pers-start="0,0" pers-end="0,0" locked="0" mesh="" flag=""/>
            <path id="shapePath8" d="M277.083,48 L269.533,33.45 C273.783,32.1 276.133,28.6 276.133,23.5 C276.133,16.6 271.783,13 265.133,13 L254.383,13 L254.383,48 L257.783,48 L257.783,34.1 L265.133,34.1 C265.483,34.1 265.833,34.1 266.183,34.05 L273.183,48 L277.083,48 M264.833,30.9 L257.783,30.9 L257.783,16.15 L264.833,16.15 C270.133,16.15 272.533,18.9 272.533,23.5 C272.533,28.2 270.133,30.9 264.833,30.9 Z" style="stroke:none;fill-rule:nonzero;fill:#000000;fill-opacity:1;"/>
        </g>
        <g id="Shape9">
            <desc shapeID="9" type="0" basicInfo-basicType="0" basicInfo-roundedRectRadius="12" basicInfo-polygonSides="6" basicInfo-starPoints="5" bounding="rect(-12.825,-17.5,25.65,35)" text="" font-familyName="" font-pixelSize="20" font-bold="0" font-underline="0" font-alignment="1" strokeStyle="0" markerStart="0" markerEnd="0" shadowEnabled="0" shadowOffsetX="0" shadowOffsetY="2" shadowBlur="4" shadowOpacity="160" blurEnabled="0" blurRadius="4" transform="matrix(1,0,0,1,299.427,30.5)" pers-center="0,0" pers-size="0,0" pers-start="0,0" pers-end="0,0" locked="0" mesh="" flag=""/>
            <path id="shapePath9" d="M308.702,48 L312.252,48 L302.502,13 L296.302,13 L286.602,48 L290.052,48 L292.552,38.85 L306.202,38.85 L308.702,48 M293.452,35.65 L298.652,16.65 L300.152,16.65 L305.302,35.6 L293.452,35.65 Z" style="stroke:none;fill-rule:nonzero;fill:#000000;fill-opacity:1;"/>
        </g>
        <g id="Shape10">
            <desc shapeID="10" type="0" basicInfo-basicType="0" basicInfo-roundedRectRadius="12" basicInfo-polygonSides="6" basicInfo-starPoints="5" bounding="rect(-11.3,-17.5,22.6,35)" text="" font-familyName="" font-pixelSize="20" font-bold="0" font-underline="0" font-alignment="1" strokeStyle="0" markerStart="0" markerEnd="0" shadowEnabled="0" shadowOffsetX="0" shadowOffsetY="2" shadowBlur="4" shadowOpacity="160" blurEnabled="0" blurRadius="4" transform="matrix(1,0,0,1,335.741,30.5)" pers-center="0,0" pers-size="0,0" pers-start="0,0" pers-end="0,0" locked="0" mesh="" flag=""/>
            <path id="shapePath10" d="M324.441,48 L327.691,48 L327.691,20.3 L327.941,20.3 L343.891,48 L347.041,48 L347.041,13 L343.791,13 L343.791,41.05 L343.541,41.05 L327.191,13 L324.441,13 L324.441,48 Z" style="stroke:none;fill-rule:nonzero;fill:#000000;fill-opacity:1;"/>
        </g>
        <g id="Shape11">
            <desc shapeID="11" type="0" basicInfo-basicType="0" basicInfo-roundedRectRadius="12" basicInfo-polygonSides="6" basicInfo-starPoints="5" bounding="rect(-9.125,-17.5,18.25,35)" text="" font-familyName="" font-pixelSize="20" font-bold="0" font-underline="0" font-alignment="1" strokeStyle="0" markerStart="0" markerEnd="0" shadowEnabled="0" shadowOffsetX="0" shadowOffsetY="2" shadowBlur="4" shadowOpacity="160" blurEnabled="0" blurRadius="4" transform="matrix(1,0,0,1,371.574,30.5)" pers-center="0,0" pers-size="0,0" pers-start="0,0" pers-end="0,0" locked="0" mesh="" flag=""/>
            <path id="shapePath11" d="M362.449,48 L380.699,48 L380.699,44.85 L365.849,44.85 L365.849,31.7 L379.599,31.7 L379.599,28.55 L365.849,28.55 L365.849,16.15 L380.699,16.15 L380.699,13 L362.449,13 L362.449,48 Z" style="stroke:none;fill-rule:nonzero;fill:#000000;fill-opacity:1;"/>
        </g>
        <g id="Shape12">
            <desc shapeID="12" type="0" basicInfo-basicType="0" basicInfo-roundedRectRadius="12" basicInfo-polygonSides="6" basicInfo-starPoints="5" bounding="rect(-12.825,-17.5,25.65,35)" text="" font-familyName="" font-pixelSize="20" font-bold="0" font-underline="0" font-alignment="1" strokeStyle="0" markerStart="0" markerEnd="0" shadowEnabled="0" shadowOffsetX="0" shadowOffsetY="2" shadowBlur="4" shadowOpacity="160" blurEnabled="0" blurRadius="4" transform="matrix(1,0,0,1,404.27,30.5)" pers-center="0,0" pers-size="0,0" pers-start="0,0" pers-end="0,0" locked="0" mesh="" flag=""/>
            <path id="shapePath12" d="M413.545,48 L417.095,48 L407.345,13 L401.145,13 L391.445,48 L394.895,48 L397.395,38.85 L411.045,38.85 L413.545,48 M398.295,35.65 L403.495,16.65 L404.995,16.65 L410.145,35.6 L398.295,35.65 Z" style="stroke:none;fill-rule:nonzero;fill:#000000;fill-opacity:1;"/>
        </g>
    </g>
</svg>
