<?xml version="1.0"?>
<svg version="1.1" xmlns="http://www.w3.org/2000/svg" xmlns:xlink="http://www.w3.org/1999/xlink" width="450" height="60">
    <desc iVinci="yes" version="4.6" gridStep="20" showGrid="no" snapToGrid="no" codePlatform="0"/>
    <g id="Layer1" name="Layer 1" opacity="1">
        <g id="Shape1">
            <desc shapeID="1" type="0" basicInfo-basicType="0" basicInfo-roundedRectRadius="12" basicInfo-polygonSides="6" basicInfo-starPoints="5" bounding="rect(-9.125,-17.5,18.25,35)" text="" font-familyName="" font-pixelSize="20" font-bold="0" font-underline="0" font-alignment="1" strokeStyle="0" markerStart="0" markerEnd="0" shadowEnabled="0" shadowOffsetX="0" shadowOffsetY="2" shadowBlur="4" shadowOpacity="160" blurEnabled="0" blurRadius="4" transform="matrix(1,0,0,1,15.375,30.5)" pers-center="0,0" pers-size="0,0" pers-start="0,0" pers-end="0,0" locked="0" mesh="" flag=""/>
            <path id="shapePath1" d="M6.25,48 L24.5,48 L24.5,44.85 L9.65,44.85 L9.65,31.7 L23.4,31.7 L23.4,28.55 L9.65,28.55 L9.65,16.15 L24.5,16.15 L24.5,13 L6.25,13 L6.25,48 Z" style="stroke:none;fill-rule:nonzero;fill:#000000;fill-opacity:1;"/>
        </g>
        <g id="Shape2">
            <desc shapeID="2" type="0" basicInfo-basicType="0" basicInfo-roundedRectRadius="12" basicInfo-polygonSides="6" basicInfo-starPoints="5" bounding="rect(-14.4043,-17.4316,28.8086,34.8633)" text="" font-familyName="" font-pixelSize="20" font-bold="0" font-underline="0" font-alignment="1" strokeStyle="0" markerStart="0" markerEnd="0" shadowEnabled="0" shadowOffsetX="0" shadowOffsetY="2" shadowBlur="4" shadowOpacity="160" blurEnabled="0" blurRadius="4" transform="matrix(1,0,0,1,46.5752,30.5928)" pers-center="0,0" pers-size="0,0" pers-start="0,0" pers-end="0,0" locked="0" mesh="" flag=""/>
            <path id="shapePath2" d="M60.9795,44.875 C60.8981,45.2493 60.8086,45.6318 60.7109,46.0225 C60.6296,46.4131 60.4993,46.7712 60.3203,47.0967 C60.1901,47.3245 59.9704,47.5036 59.6611,47.6338 C59.3682,47.7477 59.0426,47.8372 58.6846,47.9023 C58.3428,47.9674 57.9928,48 57.6348,48 C57.2767,48.0163 56.9837,48.0244 56.7559,48.0244 C55.7793,48.0244 54.8027,47.9756 53.8262,47.8779 C52.8659,47.764 51.8975,47.6745 50.9209,47.6094 C50.5466,47.5931 50.1885,47.5768 49.8467,47.5605 C49.5212,47.528 49.2201,47.4547 48.9434,47.3408 C48.6829,47.2106 48.4714,47.0234 48.3086,46.7793 C48.1621,46.5189 48.0889,46.1527 48.0889,45.6807 C48.0889,44.9482 48.1865,44.3949 48.3818,44.0205 C48.5771,43.6299 48.7969,43.3206 49.041,43.0928 C49.2852,42.8486 49.5049,42.637 49.7002,42.458 C49.8955,42.279 49.9932,42.0348 49.9932,41.7256 C49.9932,41.4001 49.9118,41.1071 49.749,40.8467 C49.5863,40.57 49.4154,40.2933 49.2363,40.0166 C48.9759,39.6097 48.7725,39.1621 48.626,38.6738 C48.4958,38.1693 48.3411,37.6973 48.1621,37.2578 C47.9831,36.8184 47.7308,36.4521 47.4053,36.1592 C47.0798,35.8662 46.5996,35.7197 45.9648,35.7197 C45.623,35.7197 45.3952,35.7848 45.2812,35.915 C45.1836,36.029 45.1185,36.1836 45.0859,36.3789 C45.0534,36.5579 45.0127,36.7533 44.9639,36.9648 C44.9313,37.1601 44.8092,37.331 44.5977,37.4775 C44.3047,37.6891 44.028,37.9821 43.7676,38.3564 C43.5072,38.7308 43.2793,39.1296 43.084,39.5527 C42.8887,39.9759 42.7341,40.4154 42.6201,40.8711 C42.5062,41.3105 42.4492,41.7093 42.4492,42.0674 C42.4492,42.3603 42.555,42.6452 42.7666,42.9219 C42.9782,43.1823 43.2142,43.4508 43.4746,43.7275 C43.735,44.0042 43.971,44.2972 44.1826,44.6064 C44.3942,44.9157 44.5,45.2656 44.5,45.6562 C44.5,45.7376 44.4837,45.8678 44.4512,46.0469 C44.4186,46.2096 44.3372,46.291 44.207,46.291 C44.1256,46.291 44.0443,46.2666 43.9629,46.2178 C43.8978,46.1689 43.8245,46.1445 43.7432,46.1445 C43.6781,46.1445 43.6211,46.1771 43.5723,46.2422 C43.5397,46.3073 43.5234,46.3724 43.5234,46.4375 C43.5234,46.5026 43.5641,46.5352 43.6455,46.5352 L43.6943,46.5352 C43.7594,46.5352 43.8164,46.5433 43.8652,46.5596 C43.9141,46.5759 43.9385,46.6491 43.9385,46.7793 C43.9385,46.9746 43.8652,47.1292 43.7187,47.2432 C43.5723,47.3571 43.3932,47.4466 43.1816,47.5117 C42.9863,47.5606 42.7829,47.5931 42.5713,47.6094 C42.3597,47.6094 42.1888,47.6094 42.0586,47.6094 C41.7331,47.6094 41.4157,47.5931 41.1064,47.5606 C40.8135,47.528 40.5042,47.5117 40.1787,47.5117 C39.2998,47.5117 38.4128,47.5524 37.5176,47.6338 C36.6387,47.6989 35.7516,47.7315 34.8564,47.7315 C34.6123,47.7315 34.3356,47.7233 34.0264,47.707 C33.7171,47.6908 33.4241,47.6419 33.1475,47.5606 C32.8708,47.4629 32.6348,47.3246 32.4394,47.1455 C32.2604,46.9502 32.1709,46.6817 32.1709,46.3399 C32.1709,45.9981 32.2686,45.6888 32.4639,45.4121 C32.6592,45.1192 32.8789,44.8669 33.123,44.6553 C33.416,44.4111 33.7334,44.224 34.0752,44.0938 C34.417,43.9473 34.7669,43.8171 35.125,43.7031 C35.4831,43.5892 35.833,43.4671 36.1748,43.3369 C36.5329,43.2067 36.8584,43.0196 37.1514,42.7754 C37.5745,42.4336 37.9245,42.0348 38.2012,41.5791 C38.4941,41.1071 38.7546,40.627 38.9824,40.1387 C39.2266,39.6341 39.4707,39.1377 39.7148,38.6494 C39.959,38.1449 40.2682,37.6891 40.6426,37.2822 C40.7565,37.152 40.8704,36.9811 40.9844,36.7695 C41.0983,36.558 41.196,36.3301 41.2773,36.086 C41.3587,35.8418 41.4238,35.6058 41.4727,35.3779 C41.5215,35.1338 41.5459,34.9222 41.5459,34.7432 C41.5459,34.5967 41.6029,34.4828 41.7168,34.4014 C41.847,34.3037 41.9609,34.2142 42.0586,34.1328 C42.3678,33.905 42.5957,33.6852 42.7422,33.4737 C42.8887,33.2458 43.027,32.9528 43.1572,32.5947 C43.32,32.1065 43.5234,31.6182 43.7676,31.1299 C44.028,30.6416 44.1582,30.1371 44.1582,29.6162 C44.1582,29.4046 44.1094,29.1361 44.0117,28.8106 C43.9303,28.4688 43.8164,28.127 43.6699,27.7852 C43.5397,27.4434 43.3932,27.1179 43.2305,26.8086 C43.0677,26.4994 42.9131,26.2634 42.7666,26.1006 C42.6364,25.9541 42.5143,25.8402 42.4004,25.7588 C42.2865,25.6774 42.1888,25.6042 42.1074,25.5391 C42.026,25.4577 41.9609,25.36 41.9121,25.2461 C41.8633,25.1159 41.8389,24.9287 41.8389,24.6846 C41.8389,24.4242 41.7982,24.1882 41.7168,23.9766 C41.6354,23.765 41.5296,23.5697 41.3994,23.3906 C41.2692,23.1953 41.1227,23.0082 40.96,22.8291 C40.8135,22.6501 40.6751,22.4629 40.5449,22.2676 C40.3333,21.9584 40.1543,21.6328 40.0078,21.291 C39.8776,20.933 39.7474,20.5749 39.6172,20.2168 C39.5033,19.8587 39.3649,19.5088 39.2021,19.167 C39.0557,18.8252 38.8603,18.5078 38.6162,18.2149 C38.3232,17.8731 38.0791,17.5964 37.8838,17.3848 C37.6885,17.1732 37.485,17.0104 37.2734,16.8965 C37.0618,16.7663 36.8096,16.6849 36.5166,16.6524 C36.2399,16.6035 35.8737,16.5791 35.418,16.5791 C35.2064,16.5791 34.9378,16.5222 34.6123,16.4082 C34.2868,16.278 33.9694,16.1234 33.6602,15.9444 C33.3672,15.749 33.1068,15.5293 32.8789,15.2852 C32.6673,15.041 32.5615,14.7969 32.5615,14.5528 C32.5615,14.3249 32.6673,14.154 32.8789,14.0401 C33.1068,13.9261 33.3672,13.8447 33.6602,13.7959 C33.9531,13.7308 34.2461,13.6983 34.5391,13.6983 C34.832,13.682 35.0518,13.6657 35.1982,13.6494 C35.6865,13.6169 36.1748,13.5843 36.6631,13.5518 C37.1514,13.5029 37.6396,13.4785 38.1279,13.4785 C38.4534,13.4785 38.7708,13.4948 39.0801,13.5274 C39.4056,13.5599 39.7311,13.5762 40.0566,13.5762 C40.6263,13.5762 41.1797,13.5518 41.7168,13.5029 C42.2214,13.4541 42.6201,13.4867 42.9131,13.6006 C43.2061,13.7145 43.4258,13.861 43.5723,14.0401 C43.7187,14.2191 43.8083,14.3981 43.8408,14.5772 C43.8896,14.7399 43.9141,14.8539 43.9141,14.919 C43.9141,15.1631 43.8083,15.391 43.5967,15.6026 C43.4014,15.7979 43.1735,15.9932 42.9131,16.1885 C42.6689,16.3838 42.4329,16.5791 42.2051,16.7744 C41.9935,16.9697 41.8714,17.1732 41.8389,17.3848 C42.1969,18.4427 42.612,19.46 43.084,20.4365 C43.5723,21.4131 44.1826,22.3408 44.915,23.2197 C44.9801,23.3011 45.0615,23.3988 45.1592,23.5127 C45.2568,23.6266 45.3545,23.7406 45.4521,23.8545 C45.5661,23.9522 45.68,24.0417 45.7939,24.1231 C45.9241,24.1882 46.0462,24.2207 46.1601,24.2207 C46.209,24.2207 46.2985,24.1719 46.4287,24.0742 C46.5589,23.9603 46.7054,23.8301 46.8682,23.6836 C47.0472,23.5371 47.2262,23.3988 47.4053,23.2686 C47.6006,23.1221 47.7715,23.0163 47.918,22.9512 C48.1621,22.8535 48.3574,22.6257 48.5039,22.2676 C48.6667,21.9095 48.805,21.5108 48.9189,21.0713 C49.0491,20.6319 49.1712,20.2005 49.2851,19.7774 C49.3991,19.3542 49.5293,19.0205 49.6758,18.7764 C49.806,18.5974 49.9606,18.3776 50.1396,18.1172 C50.3187,17.8405 50.4082,17.5882 50.4082,17.3604 C50.4082,17.1325 50.3187,16.9535 50.1396,16.8233 C49.9606,16.6931 49.7653,16.5629 49.5537,16.4326 C49.3421,16.3024 49.1468,16.1397 48.9678,15.9444 C48.7887,15.7328 48.6992,15.4398 48.6992,15.0655 C48.6992,14.6911 48.7887,14.39 48.9678,14.1621 C49.1631,13.918 49.4398,13.7552 49.7978,13.6739 C50.335,13.5599 50.8883,13.4623 51.458,13.3809 C52.0277,13.2995 52.5892,13.2588 53.1426,13.2588 C53.4193,13.2588 53.6878,13.3076 53.9482,13.4053 C54.2087,13.503 54.4772,13.5518 54.7539,13.5518 C55.0631,13.5518 55.3561,13.4867 55.6328,13.3565 C55.9095,13.2263 56.2106,13.1612 56.5361,13.1612 C56.8454,13.1612 57.1546,13.1856 57.4639,13.2344 C57.7894,13.2832 58.0986,13.3483 58.3916,13.4297 C58.5381,13.4785 58.709,13.5599 58.9043,13.6739 C59.0996,13.7715 59.2786,13.8936 59.4414,14.0401 C59.6204,14.1865 59.7669,14.3493 59.8809,14.5283 C60.0111,14.6911 60.0762,14.862 60.0762,15.041 C60.0762,15.2852 59.9215,15.4968 59.6123,15.6758 C59.3031,15.8548 58.945,16.0095 58.5381,16.1397 C58.1312,16.2699 57.7243,16.3838 57.3174,16.4815 C56.9105,16.5628 56.6175,16.628 56.4385,16.6768 C55.7549,16.8721 55.1689,17.1732 54.6807,17.5801 C54.1924,17.9707 53.7692,18.4265 53.4111,18.9473 C53.0693,19.4518 52.7682,20.0052 52.5078,20.6074 C52.2637,21.1934 52.0277,21.7875 51.7998,22.3897 C51.5557,23.0244 51.2627,23.6511 50.9209,24.2696 C50.5791,24.888 50.2536,25.5147 49.9443,26.1494 C49.6351,26.7842 49.3665,27.4271 49.1387,28.0781 C48.9271,28.7292 48.8213,29.4046 48.8213,30.1045 C48.8213,30.7393 48.9108,31.2845 49.0898,31.7403 C49.2689,32.1797 49.4642,32.5866 49.6758,32.961 C49.8874,33.319 50.0827,33.6608 50.2617,33.9864 C50.4408,34.2956 50.5303,34.6211 50.5303,34.9629 C50.5303,35.0443 50.5872,35.1582 50.7012,35.3047 C50.8314,35.4349 50.9779,35.5733 51.1406,35.7197 C51.3034,35.8662 51.458,36.0127 51.6045,36.1592 C51.7672,36.3057 51.873,36.4278 51.9219,36.5254 C52.2311,37.0462 52.4997,37.6159 52.7275,38.2344 C52.9717,38.8366 53.2321,39.4226 53.5088,39.9922 C53.7855,40.5619 54.111,41.0908 54.4853,41.5791 C54.876,42.0674 55.3724,42.458 55.9746,42.751 C56.2513,42.8975 56.5361,43.0033 56.8291,43.0684 C57.1383,43.1172 57.4476,43.166 57.7568,43.2149 C58.0661,43.2474 58.3753,43.28 58.6846,43.3125 C58.9938,43.3451 59.2949,43.402 59.5879,43.4834 C59.8646,43.516 60.0843,43.5811 60.2471,43.6787 C60.4261,43.7601 60.5644,43.8659 60.6621,43.9961 C60.7598,44.1263 60.8249,44.2728 60.8574,44.4356 C60.9062,44.5821 60.9469,44.7285 60.9795,44.875 L60.9795,44.875 Z" style="stroke:none;fill-rule:nonzero;fill:#000000;fill-opacity:1;"/>
        </g>
        <g id="Shape3">
            <desc shapeID="3" type="0" basicInfo-basicType="0" basicInfo-roundedRectRadius="12" basicInfo-polygonSides="6" basicInfo-starPoints="5" bounding="rect(-11.675,-17.5,23.35,35)" text="" font-familyName="" font-pixelSize="20" font-bold="0" font-underline="0" font-alignment="1" strokeStyle="0" markerStart="0" markerEnd="0" shadowEnabled="0" shadowOffsetX="0" shadowOffsetY="2" shadowBlur="4" shadowOpacity="160" blurEnabled="0" blurRadius="4" transform="matrix(1,0,0,1,77.675,30.5)" pers-center="0,0" pers-size="0,0" pers-start="0,0" pers-end="0,0" locked="0" mesh="" flag=""/>
            <path id="shapePath3" d="M76,48 L79.4,48 L79.4,16.15 L89.35,16.15 L89.35,13 L66,13 L66,16.15 L76,16.15 L76,48 Z" style="stroke:none;fill-rule:nonzero;fill:#000000;fill-opacity:1;"/>
        </g>
        <g id="Shape4">
            <desc shapeID="4" type="0" basicInfo-basicType="0" basicInfo-roundedRectRadius="12" basicInfo-polygonSides="6" basicInfo-starPoints="5" bounding="rect(-9.125,-17.5,18.25,35)" text="" font-familyName="" font-pixelSize="20" font-bold="0" font-underline="0" font-alignment="1" strokeStyle="0" markerStart="0" markerEnd="0" shadowEnabled="0" shadowOffsetX="0" shadowOffsetY="2" shadowBlur="4" shadowOpacity="160" blurEnabled="0" blurRadius="4" transform="matrix(1,0,0,1,111.77,30.5)" pers-center="0,0" pers-size="0,0" pers-start="0,0" pers-end="0,0" locked="0" mesh="" flag=""/>
            <path id="shapePath4" d="M102.645,48 L120.895,48 L120.895,44.85 L106.045,44.85 L106.045,31.7 L119.795,31.7 L119.795,28.55 L106.045,28.55 L106.045,16.15 L120.895,16.15 L120.895,13 L102.645,13 L102.645,48 Z" style="stroke:none;fill-rule:nonzero;fill:#000000;fill-opacity:1;"/>
        </g>
        <g id="Shape5">
            <desc shapeID="5" type="0" basicInfo-basicType="0" basicInfo-roundedRectRadius="12" basicInfo-polygonSides="6" basicInfo-starPoints="5" bounding="rect(-15.975,-17.5,31.95,35)" text="" font-familyName="" font-pixelSize="20" font-bold="0" font-underline="0" font-alignment="1" strokeStyle="0" markerStart="0" markerEnd="0" shadowEnabled="0" shadowOffsetX="0" shadowOffsetY="2" shadowBlur="4" shadowOpacity="160" blurEnabled="0" blurRadius="4" transform="matrix(1,0,0,1,150.616,30.5)" pers-center="0,0" pers-size="0,0" pers-start="0,0" pers-end="0,0" locked="0" mesh="" flag=""/>
            <path id="shapePath5" d="M134.641,48 L137.941,48 L138.741,18.3 L138.991,18.3 L148.291,43.5 L152.941,43.5 L162.241,18.3 L162.491,18.3 L163.241,48 L166.591,48 L165.441,13 L160.891,13 L150.641,40.7 L140.341,13 L135.741,13 L134.641,48 Z" style="stroke:none;fill-rule:nonzero;fill:#000000;fill-opacity:1;"/>
        </g>
        <g id="Shape6">
            <desc shapeID="6" type="0" basicInfo-basicType="0" basicInfo-roundedRectRadius="12" basicInfo-polygonSides="6" basicInfo-starPoints="5" bounding="rect(-10.675,-17.5,21.35,35)" text="" font-familyName="" font-pixelSize="20" font-bold="0" font-underline="0" font-alignment="1" strokeStyle="0" markerStart="0" markerEnd="0" shadowEnabled="0" shadowOffsetX="0" shadowOffsetY="2" shadowBlur="4" shadowOpacity="160" blurEnabled="0" blurRadius="4" transform="matrix(1,0,0,1,192.46,30.5)" pers-center="0,0" pers-size="0,0" pers-start="0,0" pers-end="0,0" locked="0" mesh="" flag=""/>
            <path id="shapePath6" d="M181.785,48 L185.185,48 L185.185,34.95 L192.235,34.95 C199.335,34.95 203.135,30.5 203.135,24 C203.135,17.1 199.035,13 192.235,13 L181.785,13 L181.785,48 M185.185,31.8 L185.185,16.15 L192.135,16.15 C197.635,16.15 199.585,19.45 199.585,24 C199.585,28.45 197.635,31.8 192.135,31.8 L185.185,31.8 Z" style="stroke:none;fill-rule:nonzero;fill:#000000;fill-opacity:1;"/>
        </g>
        <g id="Shape7">
            <desc shapeID="7" type="0" basicInfo-basicType="0" basicInfo-roundedRectRadius="12" basicInfo-polygonSides="6" basicInfo-starPoints="5" bounding="rect(-12.8,-17.9,25.6,35.8)" text="" font-familyName="" font-pixelSize="20" font-bold="0" font-underline="0" font-alignment="1" strokeStyle="0" markerStart="0" markerEnd="0" shadowEnabled="0" shadowOffsetX="0" shadowOffsetY="2" shadowBlur="4" shadowOpacity="160" blurEnabled="0" blurRadius="4" transform="matrix(1,0,0,1,227.675,30.5)" pers-center="0,0" pers-size="0,0" pers-start="0,0" pers-end="0,0" locked="0" mesh="" flag=""/>
            <path id="shapePath7" d="M227.675,12.6 C218.475,12.6 214.875,19.55 214.875,30.45 C214.875,41.45 218.475,48.4 227.675,48.4 C236.825,48.4 240.475,41.45 240.475,30.45 C240.475,19.55 236.825,12.6 227.675,12.6 M227.675,45.25 C220.675,45.25 218.425,39.5 218.425,30.45 C218.425,21.5 220.675,15.75 227.675,15.75 C234.625,15.75 236.875,21.5 236.875,30.45 C236.875,39.5 234.625,45.25 227.675,45.25 Z" style="stroke:none;fill-rule:nonzero;fill:#000000;fill-opacity:1;"/>
        </g>
        <g id="Shape8">
            <desc shapeID="8" type="0" basicInfo-basicType="0" basicInfo-roundedRectRadius="12" basicInfo-polygonSides="6" basicInfo-starPoints="5" bounding="rect(-11.35,-17.5,22.7,35)" text="" font-familyName="" font-pixelSize="20" font-bold="0" font-underline="0" font-alignment="1" strokeStyle="0" markerStart="0" markerEnd="0" shadowEnabled="0" shadowOffsetX="0" shadowOffsetY="2" shadowBlur="4" shadowOpacity="160" blurEnabled="0" blurRadius="4" transform="matrix(1,0,0,1,265.733,30.5)" pers-center="0,0" pers-size="0,0" pers-start="0,0" pers-end="0,0" locked="0" mesh="" flag=""/>
            <path id="shapePath8" d="M277.083,48 L269.533,33.45 C273.783,32.1 276.133,28.6 276.133,23.5 C276.133,16.6 271.783,13 265.133,13 L254.383,13 L254.383,48 L257.783,48 L257.783,34.1 L265.133,34.1 C265.483,34.1 265.833,34.1 266.183,34.05 L273.183,48 L277.083,48 M264.833,30.9 L257.783,30.9 L257.783,16.15 L264.833,16.15 C270.133,16.15 272.533,18.9 272.533,23.5 C272.533,28.2 270.133,30.9 264.833,30.9 Z" style="stroke:none;fill-rule:nonzero;fill:#000000;fill-opacity:1;"/>
        </g>
        <g id="Shape9">
            <desc shapeID="9" type="0" basicInfo-basicType="0" basicInfo-roundedRectRadius="12" basicInfo-polygonSides="6" basicInfo-starPoints="5" bounding="rect(-12.825,-17.5,25.65,35)" text="" font-familyName="" font-pixelSize="20" font-bold="0" font-underline="0" font-alignment="1" strokeStyle="0" markerStart="0" markerEnd="0" shadowEnabled="0" shadowOffsetX="0" shadowOffsetY="2" shadowBlur="4" shadowOpacity="160" blurEnabled="0" blurRadius="4" transform="matrix(1,0,0,1,299.427,30.5)" pers-center="0,0" pers-size="0,0" pers-start="0,0" pers-end="0,0" locked="0" mesh="" flag=""/>
            <path id="shapePath9" d="M308.702,48 L312.252,48 L302.502,13 L296.302,13 L286.602,48 L290.052,48 L292.552,38.85 L306.202,38.85 L308.702,48 M293.452,35.65 L298.652,16.65 L300.152,16.65 L305.302,35.6 L293.452,35.65 Z" style="stroke:none;fill-rule:nonzero;fill:#000000;fill-opacity:1;"/>
        </g>
        <g id="Shape10">
            <desc shapeID="10" type="0" basicInfo-basicType="0" basicInfo-roundedRectRadius="12" basicInfo-polygonSides="6" basicInfo-starPoints="5" bounding="rect(-11.3,-17.5,22.6,35)" text="" font-familyName="" font-pixelSize="20" font-bold="0" font-underline="0" font-alignment="1" strokeStyle="0" markerStart="0" markerEnd="0" shadowEnabled="0" shadowOffsetX="0" shadowOffsetY="2" shadowBlur="4" shadowOpacity="160" blurEnabled="0" blurRadius="4" transform="matrix(1,0,0,1,335.741,30.5)" pers-center="0,0" pers-size="0,0" pers-start="0,0" pers-end="0,0" locked="0" mesh="" flag=""/>
            <path id="shapePath10" d="M324.441,48 L327.691,48 L327.691,20.3 L327.941,20.3 L343.891,48 L347.041,48 L347.041,13 L343.791,13 L343.791,41.05 L343.541,41.05 L327.191,13 L324.441,13 L324.441,48 Z" style="stroke:none;fill-rule:nonzero;fill:#000000;fill-opacity:1;"/>
        </g>
        <g id="Shape11">
            <desc shapeID="11" type="0" basicInfo-basicType="0" basicInfo-roundedRectRadius="12" basicInfo-polygonSides="6" basicInfo-starPoints="5" bounding="rect(-9.125,-17.5,18.25,35)" text="" font-familyName="" font-pixelSize="20" font-bold="0" font-underline="0" font-alignment="1" strokeStyle="0" markerStart="0" markerEnd="0" shadowEnabled="0" shadowOffsetX="0" shadowOffsetY="2" shadowBlur="4" shadowOpacity="160" blurEnabled="0" blurRadius="4" transform="matrix(1,0,0,1,371.574,30.5)" pers-center="0,0" pers-size="0,0" pers-start="0,0" pers-end="0,0" locked="0" mesh="" flag=""/>
            <path id="shapePath11" d="M362.449,48 L380.699,48 L380.699,44.85 L365.849,44.85 L365.849,31.7 L379.599,31.7 L379.599,28.55 L365.849,28.55 L365.849,16.15 L380.699,16.15 L380.699,13 L362.449,13 L362.449,48 Z" style="stroke:none;fill-rule:nonzero;fill:#000000;fill-opacity:1;"/>
        </g>
        <g id="Shape12">
            <desc shapeID="12" type="0" basicInfo-basicType="0" basicInfo-roundedRectRadius="12" basicInfo-polygonSides="6" basicInfo-starPoints="5" bounding="rect(-12.825,-17.5,25.65,35)" text="" font-familyName="" font-pixelSize="20" font-bold="0" font-underline="0" font-alignment="1" strokeStyle="0" markerStart="0" markerEnd="0" shadowEnabled="0" shadowOffsetX="0" shadowOffsetY="2" shadowBlur="4" shadowOpacity="160" blurEnabled="0" blurRadius="4" transform="matrix(1,0,0,1,404.27,30.5)" pers-center="0,0" pers-size="0,0" pers-start="0,0" pers-end="0,0" locked="0" mesh="" flag=""/>
            <path id="shapePath12" d="M413.545,48 L417.095,48 L407.345,13 L401.145,13 L391.445,48 L394.895,48 L397.395,38.85 L411.045,38.85 L413.545,48 M398.295,35.65 L403.495,16.65 L404.995,16.65 L410.145,35.6 L398.295,35.65 Z" style="stroke:none;fill-rule:nonzero;fill:#000000;fill-opacity:1;"/>
        </g>
    </g>
</svg>
