<?xml version="1.0"?>
<svg version="1.1" xmlns="http://www.w3.org/2000/svg" xmlns:xlink="http://www.w3.org/1999/xlink" width="450" height="60">
    <desc iVinci="yes" version="4.6" gridStep="20" showGrid="no" snapToGrid="no" codePlatform="0"/>
    <g id="Layer1" name="Layer 1" opacity="1">
        <g id="Shape1">
            <desc shapeID="1" type="0" basicInfo-basicType="0" basicInfo-roundedRectRadius="12" basicInfo-polygonSides="6" basicInfo-starPoints="5" bounding="rect(-9.125,-17.5,18.25,35)" text="" font-familyName="" font-pixelSize="20" font-bold="0" font-underline="0" font-alignment="1" strokeStyle="0" markerStart="0" markerEnd="0" shadowEnabled="0" shadowOffsetX="0" shadowOffsetY="2" shadowBlur="4" shadowOpacity="160" blurEnabled="0" blurRadius="4" transform="matrix(1,0,0,1,15.375,30.5)" pers-center="0,0" pers-size="0,0" pers-start="0,0" pers-end="0,0" locked="0" mesh="" flag=""/>
            <path id="shapePath1" d="M6.25,48 L24.5,48 L24.5,44.85 L9.65,44.85 L9.65,31.7 L23.4,31.7 L23.4,28.55 L9.65,28.55 L9.65,16.15 L24.5,16.15 L24.5,13 L6.25,13 L6.25,48 Z" style="stroke:none;fill-rule:nonzero;fill:#000000;fill-opacity:1;"/>
        </g>
        <g id="Shape2">
            <desc shapeID="2" type="0" basicInfo-basicType="0" basicInfo-roundedRectRadius="12" basicInfo-polygonSides="6" basicInfo-starPoints="5" bounding="rect(-21.3,-19.45,42.6,38.9)" text="" font-familyName="" font-pixelSize="20" font-bold="0" font-underline="0" font-alignment="1" strokeStyle="0" markerStart="0" markerEnd="0" shadowEnabled="0" shadowOffsetX="0" shadowOffsetY="2" shadowBlur="4" shadowOpacity="160" blurEnabled="0" blurRadius="4" transform="matrix(0.788006,0,0,0.788006,43.7845,29.6733)" pers-center="0,0" pers-size="0,0" pers-start="0,0" pers-end="0,0" locked="0" mesh="" flag=""/>
            <path id="shapePath2" d="M35.3923,14.3466 L31.4522,14.3466 C30.2177,14.3466 29.167,14.78 28.3002,15.6468 C27.4334,16.5136 27,17.5643 27,18.7988 C27,20.0333 27.4334,21.0972 28.3002,21.9902 C29.167,22.857 30.2177,23.2904 31.4522,23.2904 L35.3923,23.2904 C36.6268,23.2904 37.6775,22.857 38.5443,21.9902 C39.4111,21.0972 39.8445,20.0333 39.8445,18.7988 C39.8445,17.5643 39.4111,16.5136 38.5443,15.6468 C37.6775,14.78 36.6268,14.3466 35.3923,14.3466 M52.1768,25.2605 L35.3923,25.2605 C34.1577,25.2605 33.107,25.707 32.2402,26.6001 C31.3734,27.4669 30.94,28.5175 30.94,29.7521 C30.94,30.9866 31.3734,32.0373 32.2402,32.9041 C33.107,33.7709 34.1577,34.2043 35.3923,34.2043 L52.1768,34.2043 C53.4113,34.2043 54.462,33.7709 55.3288,32.9041 C56.2219,32.0373 56.6684,30.9866 56.6684,29.7521 C56.6684,28.5175 56.2219,27.4669 55.3288,26.6001 C54.462,25.707 53.4113,25.2605 52.1768,25.2605 M56.1168,14.3466 L52.1768,14.3466 C50.9422,14.3466 49.8916,14.78 49.0248,15.6468 C48.158,16.5136 47.7246,17.5643 47.7246,18.7988 C47.7246,20.0333 48.158,21.0972 49.0248,21.9902 C49.8916,22.857 50.9422,23.2904 52.1768,23.2904 L56.1168,23.2904 C57.3514,23.2904 58.402,22.857 59.2688,21.9902 C60.1357,21.0972 60.569,20.0333 60.569,18.7988 C60.569,17.5643 60.1357,16.5136 59.2688,15.6468 C58.402,14.78 57.3514,14.3466 56.1168,14.3466 M35.3923,36.0561 L31.4522,36.0561 C30.2177,36.0561 29.167,36.5027 28.3002,37.3957 C27.4334,38.2626 27,39.3132 27,40.5478 C27,41.7823 27.4334,42.833 28.3002,43.6998 C29.167,44.5666 30.2177,45 31.4522,45 L35.3923,45 C36.6268,45 37.6775,44.5666 38.5443,43.6998 C39.4111,42.833 39.8445,41.7823 39.8445,40.5478 C39.8445,39.3132 39.4111,38.2626 38.5443,37.3957 C37.6775,36.5027 36.6268,36.0561 35.3923,36.0561 M56.1168,36.0561 L52.1768,36.0561 C50.9422,36.0561 49.8916,36.5027 49.0248,37.3957 C48.158,38.2626 47.7246,39.3132 47.7246,40.5478 C47.7246,41.7823 48.158,42.833 49.0248,43.6998 C49.8916,44.5666 50.9422,45 52.1768,45 L56.1168,45 C57.3514,45 58.402,44.5666 59.2688,43.6998 C60.1357,42.833 60.569,41.7823 60.569,40.5478 C60.569,39.3132 60.1357,38.2626 59.2688,37.3957 C58.402,36.5027 57.3514,36.0561 56.1168,36.0561 Z" style="stroke:none;fill-rule:nonzero;fill:#000000;fill-opacity:1;"/>
        </g>
        <g id="Shape3">
            <desc shapeID="3" type="0" basicInfo-basicType="0" basicInfo-roundedRectRadius="12" basicInfo-polygonSides="6" basicInfo-starPoints="5" bounding="rect(-11.675,-17.5,23.35,35)" text="" font-familyName="" font-pixelSize="20" font-bold="0" font-underline="0" font-alignment="1" strokeStyle="0" markerStart="0" markerEnd="0" shadowEnabled="0" shadowOffsetX="0" shadowOffsetY="2" shadowBlur="4" shadowOpacity="160" blurEnabled="0" blurRadius="4" transform="matrix(1,0,0,1,77.675,30.5)" pers-center="0,0" pers-size="0,0" pers-start="0,0" pers-end="0,0" locked="0" mesh="" flag=""/>
            <path id="shapePath3" d="M76,48 L79.4,48 L79.4,16.15 L89.35,16.15 L89.35,13 L66,13 L66,16.15 L76,16.15 L76,48 Z" style="stroke:none;fill-rule:nonzero;fill:#000000;fill-opacity:1;"/>
        </g>
        <g id="Shape4">
            <desc shapeID="4" type="0" basicInfo-basicType="0" basicInfo-roundedRectRadius="12" basicInfo-polygonSides="6" basicInfo-starPoints="5" bounding="rect(-9.125,-17.5,18.25,35)" text="" font-familyName="" font-pixelSize="20" font-bold="0" font-underline="0" font-alignment="1" strokeStyle="0" markerStart="0" markerEnd="0" shadowEnabled="0" shadowOffsetX="0" shadowOffsetY="2" shadowBlur="4" shadowOpacity="160" blurEnabled="0" blurRadius="4" transform="matrix(1,0,0,1,111.77,30.5)" pers-center="0,0" pers-size="0,0" pers-start="0,0" pers-end="0,0" locked="0" mesh="" flag=""/>
            <path id="shapePath4" d="M102.645,48 L120.895,48 L120.895,44.85 L106.045,44.85 L106.045,31.7 L119.795,31.7 L119.795,28.55 L106.045,28.55 L106.045,16.15 L120.895,16.15 L120.895,13 L102.645,13 L102.645,48 Z" style="stroke:none;fill-rule:nonzero;fill:#000000;fill-opacity:1;"/>
        </g>
        <g id="Shape5">
            <desc shapeID="5" type="0" basicInfo-basicType="0" basicInfo-roundedRectRadius="12" basicInfo-polygonSides="6" basicInfo-starPoints="5" bounding="rect(-15.975,-17.5,31.95,35)" text="" font-familyName="" font-pixelSize="20" font-bold="0" font-underline="0" font-alignment="1" strokeStyle="0" markerStart="0" markerEnd="0" shadowEnabled="0" shadowOffsetX="0" shadowOffsetY="2" shadowBlur="4" shadowOpacity="160" blurEnabled="0" blurRadius="4" transform="matrix(1,0,0,1,150.616,30.5)" pers-center="0,0" pers-size="0,0" pers-start="0,0" pers-end="0,0" locked="0" mesh="" flag=""/>
            <path id="shapePath5" d="M134.641,48 L137.941,48 L138.741,18.3 L138.991,18.3 L148.291,43.5 L152.941,43.5 L162.241,18.3 L162.491,18.3 L163.241,48 L166.591,48 L165.441,13 L160.891,13 L150.641,40.7 L140.341,13 L135.741,13 L134.641,48 Z" style="stroke:none;fill-rule:nonzero;fill:#000000;fill-opacity:1;"/>
        </g>
        <g id="Shape6">
            <desc shapeID="6" type="0" basicInfo-basicType="0" basicInfo-roundedRectRadius="12" basicInfo-polygonSides="6" basicInfo-starPoints="5" bounding="rect(-10.675,-17.5,21.35,35)" text="" font-familyName="" font-pixelSize="20" font-bold="0" font-underline="0" font-alignment="1" strokeStyle="0" markerStart="0" markerEnd="0" shadowEnabled="0" shadowOffsetX="0" shadowOffsetY="2" shadowBlur="4" shadowOpacity="160" blurEnabled="0" blurRadius="4" transform="matrix(1,0,0,1,192.46,30.5)" pers-center="0,0" pers-size="0,0" pers-start="0,0" pers-end="0,0" locked="0" mesh="" flag=""/>
            <path id="shapePath6" d="M181.785,48 L185.185,48 L185.185,34.95 L192.235,34.95 C199.335,34.95 203.135,30.5 203.135,24 C203.135,17.1 199.035,13 192.235,13 L181.785,13 L181.785,48 M185.185,31.8 L185.185,16.15 L192.135,16.15 C197.635,16.15 199.585,19.45 199.585,24 C199.585,28.45 197.635,31.8 192.135,31.8 L185.185,31.8 Z" style="stroke:none;fill-rule:nonzero;fill:#000000;fill-opacity:1;"/>
        </g>
        <g id="Shape7">
            <desc shapeID="7" type="0" basicInfo-basicType="0" basicInfo-roundedRectRadius="12" basicInfo-polygonSides="6" basicInfo-starPoints="5" bounding="rect(-12.8,-17.9,25.6,35.8)" text="" font-familyName="" font-pixelSize="20" font-bold="0" font-underline="0" font-alignment="1" strokeStyle="0" markerStart="0" markerEnd="0" shadowEnabled="0" shadowOffsetX="0" shadowOffsetY="2" shadowBlur="4" shadowOpacity="160" blurEnabled="0" blurRadius="4" transform="matrix(1,0,0,1,227.675,30.5)" pers-center="0,0" pers-size="0,0" pers-start="0,0" pers-end="0,0" locked="0" mesh="" flag=""/>
            <path id="shapePath7" d="M227.675,12.6 C218.475,12.6 214.875,19.55 214.875,30.45 C214.875,41.45 218.475,48.4 227.675,48.4 C236.825,48.4 240.475,41.45 240.475,30.45 C240.475,19.55 236.825,12.6 227.675,12.6 M227.675,45.25 C220.675,45.25 218.425,39.5 218.425,30.45 C218.425,21.5 220.675,15.75 227.675,15.75 C234.625,15.75 236.875,21.5 236.875,30.45 C236.875,39.5 234.625,45.25 227.675,45.25 Z" style="stroke:none;fill-rule:nonzero;fill:#000000;fill-opacity:1;"/>
        </g>
        <g id="Shape8">
            <desc shapeID="8" type="0" basicInfo-basicType="0" basicInfo-roundedRectRadius="12" basicInfo-polygonSides="6" basicInfo-starPoints="5" bounding="rect(-11.35,-17.5,22.7,35)" text="" font-familyName="" font-pixelSize="20" font-bold="0" font-underline="0" font-alignment="1" strokeStyle="0" markerStart="0" markerEnd="0" shadowEnabled="0" shadowOffsetX="0" shadowOffsetY="2" shadowBlur="4" shadowOpacity="160" blurEnabled="0" blurRadius="4" transform="matrix(1,0,0,1,265.733,30.5)" pers-center="0,0" pers-size="0,0" pers-start="0,0" pers-end="0,0" locked="0" mesh="" flag=""/>
            <path id="shapePath8" d="M277.083,48 L269.533,33.45 C273.783,32.1 276.133,28.6 276.133,23.5 C276.133,16.6 271.783,13 265.133,13 L254.383,13 L254.383,48 L257.783,48 L257.783,34.1 L265.133,34.1 C265.483,34.1 265.833,34.1 266.183,34.05 L273.183,48 L277.083,48 M264.833,30.9 L257.783,30.9 L257.783,16.15 L264.833,16.15 C270.133,16.15 272.533,18.9 272.533,23.5 C272.533,28.2 270.133,30.9 264.833,30.9 Z" style="stroke:none;fill-rule:nonzero;fill:#000000;fill-opacity:1;"/>
        </g>
        <g id="Shape9">
            <desc shapeID="9" type="0" basicInfo-basicType="0" basicInfo-roundedRectRadius="12" basicInfo-polygonSides="6" basicInfo-starPoints="5" bounding="rect(-12.825,-17.5,25.65,35)" text="" font-familyName="" font-pixelSize="20" font-bold="0" font-underline="0" font-alignment="1" strokeStyle="0" markerStart="0" markerEnd="0" shadowEnabled="0" shadowOffsetX="0" shadowOffsetY="2" shadowBlur="4" shadowOpacity="160" blurEnabled="0" blurRadius="4" transform="matrix(1,0,0,1,299.427,30.5)" pers-center="0,0" pers-size="0,0" pers-start="0,0" pers-end="0,0" locked="0" mesh="" flag=""/>
            <path id="shapePath9" d="M308.702,48 L312.252,48 L302.502,13 L296.302,13 L286.602,48 L290.052,48 L292.552,38.85 L306.202,38.85 L308.702,48 M293.452,35.65 L298.652,16.65 L300.152,16.65 L305.302,35.6 L293.452,35.65 Z" style="stroke:none;fill-rule:nonzero;fill:#000000;fill-opacity:1;"/>
        </g>
        <g id="Shape10">
            <desc shapeID="10" type="0" basicInfo-basicType="0" basicInfo-roundedRectRadius="12" basicInfo-polygonSides="6" basicInfo-starPoints="5" bounding="rect(-11.3,-17.5,22.6,35)" text="" font-familyName="" font-pixelSize="20" font-bold="0" font-underline="0" font-alignment="1" strokeStyle="0" markerStart="0" markerEnd="0" shadowEnabled="0" shadowOffsetX="0" shadowOffsetY="2" shadowBlur="4" shadowOpacity="160" blurEnabled="0" blurRadius="4" transform="matrix(1,0,0,1,335.741,30.5)" pers-center="0,0" pers-size="0,0" pers-start="0,0" pers-end="0,0" locked="0" mesh="" flag=""/>
            <path id="shapePath10" d="M324.441,48 L327.691,48 L327.691,20.3 L327.941,20.3 L343.891,48 L347.041,48 L347.041,13 L343.791,13 L343.791,41.05 L343.541,41.05 L327.191,13 L324.441,13 L324.441,48 Z" style="stroke:none;fill-rule:nonzero;fill:#000000;fill-opacity:1;"/>
        </g>
        <g id="Shape11">
            <desc shapeID="11" type="0" basicInfo-basicType="0" basicInfo-roundedRectRadius="12" basicInfo-polygonSides="6" basicInfo-starPoints="5" bounding="rect(-9.125,-17.5,18.25,35)" text="" font-familyName="" font-pixelSize="20" font-bold="0" font-underline="0" font-alignment="1" strokeStyle="0" markerStart="0" markerEnd="0" shadowEnabled="0" shadowOffsetX="0" shadowOffsetY="2" shadowBlur="4" shadowOpacity="160" blurEnabled="0" blurRadius="4" transform="matrix(1,0,0,1,371.574,30.5)" pers-center="0,0" pers-size="0,0" pers-start="0,0" pers-end="0,0" locked="0" mesh="" flag=""/>
            <path id="shapePath11" d="M362.449,48 L380.699,48 L380.699,44.85 L365.849,44.85 L365.849,31.7 L379.599,31.7 L379.599,28.55 L365.849,28.55 L365.849,16.15 L380.699,16.15 L380.699,13 L362.449,13 L362.449,48 Z" style="stroke:none;fill-rule:nonzero;fill:#000000;fill-opacity:1;"/>
        </g>
        <g id="Shape12">
            <desc shapeID="12" type="0" basicInfo-basicType="0" basicInfo-roundedRectRadius="12" basicInfo-polygonSides="6" basicInfo-starPoints="5" bounding="rect(-12.825,-17.5,25.65,35)" text="" font-familyName="" font-pixelSize="20" font-bold="0" font-underline="0" font-alignment="1" strokeStyle="0" markerStart="0" markerEnd="0" shadowEnabled="0" shadowOffsetX="0" shadowOffsetY="2" shadowBlur="4" shadowOpacity="160" blurEnabled="0" blurRadius="4" transform="matrix(1,0,0,1,404.27,30.5)" pers-center="0,0" pers-size="0,0" pers-start="0,0" pers-end="0,0" locked="0" mesh="" flag=""/>
            <path id="shapePath12" d="M413.545,48 L417.095,48 L407.345,13 L401.145,13 L391.445,48 L394.895,48 L397.395,38.85 L411.045,38.85 L413.545,48 M398.295,35.65 L403.495,16.65 L404.995,16.65 L410.145,35.6 L398.295,35.65 Z" style="stroke:none;fill-rule:nonzero;fill:#000000;fill-opacity:1;"/>
        </g>
    </g>
</svg>
